
{
    "total": 208,
    "per_page": "50",
    "current_page": 1,
    "last_page": 5,
    "next_page_url": "http://ws.irtdpjsc.com.br/risc/api/boleto?page=2",
    "prev_page_url": null,
    "from": 1,
    "to": 50,
    "data": [
        {
            "id": 291,
            "url": "https://www.irtdpjsc.com.br/cliente/base_boleto/8240/boleto_8240.pdf",
            "quant_pedido": 13,
            "num_boleto": 8240,
            "vencimento": "2020-08-07",
            "vlr_total": "5175.35",
            "vlr_cartorio": "5175.35",
            "vlr_frj": "0.00",
            "vlr_central": "0.00",
            "vlr_boleto": "0.00",
            "status": 1,
            "cd_boleto": 8240,
            "nome_credor": "1"
        },
        {
            "id": 290,
            "url": "https://www.irtdpjsc.com.br/cliente/base_boleto/8212/boleto_8212.pdf",
            "quant_pedido": 10,
            "num_boleto": 8212,
            "vencimento": "2020-08-06",
            "vlr_total": "4365.87",
            "vlr_cartorio": "4365.87",
            "vlr_frj": "0.00",
            "vlr_central": "0.00",
            "vlr_boleto": "0.00",
            "status": 2,
            "cd_boleto": 8212,
            "nome_credor": "1"
        },
        {
            "id": 289,
            "url": "https://www.irtdpjsc.com.br/cliente/base_boleto/8157/boleto_8157.pdf",
            "quant_pedido": 23,
            "num_boleto": 8157,
            "vencimento": "2020-08-04",
            "vlr_total": "9065.00",
            "vlr_cartorio": "9065.00",
            "vlr_frj": "0.00",
            "vlr_central": "0.00",
            "vlr_boleto": "0.00",
            "status": 2,
            "cd_boleto": 8157,
            "nome_credor": "1"
        },
        {
            "id": 288,
            "url": "https://www.irtdpjsc.com.br/cliente/base_boleto/8095/boleto_8095.pdf",
            "quant_pedido": 7,
            "num_boleto": 8095,
            "vencimento": "2020-07-31",
            "vlr_total": "2969.13",
            "vlr_cartorio": "2969.13",
            "vlr_frj": "0.00",
            "vlr_central": "0.00",
            "vlr_boleto": "0.00",
            "status": 2,
            "cd_boleto": 8095,
            "nome_credor": "1"
        },
        {
            "id": 287,
            "url": "https://www.irtdpjsc.com.br/cliente/base_boleto/8073/boleto_8073.pdf",
            "quant_pedido": 20,
            "num_boleto": 8073,
            "vencimento": "2020-07-30",
            "vlr_total": "11532.74",
            "vlr_cartorio": "11532.74",
            "vlr_frj": "0.00",
            "vlr_central": "0.00",
            "vlr_boleto": "0.00",
            "status": 2,
            "cd_boleto": 8073,
            "nome_credor": "1"
        },
        {
            "id": 286,
            "url": "https://www.irtdpjsc.com.br/cliente/base_boleto/8027/boleto_8027.pdf",
            "quant_pedido": 51,
            "num_boleto": 8027,
            "vencimento": "2020-07-29",
            "vlr_total": "20849.41",
            "vlr_cartorio": "20849.41",
            "vlr_frj": "0.00",
            "vlr_central": "0.00",
            "vlr_boleto": "0.00",
            "status": 2,
            "cd_boleto": 8027,
            "nome_credor": "1"
        },
        {
            "id": 285,
            "url": "https://www.irtdpjsc.com.br/cliente/base_boleto/8020/boleto_8020.pdf",
            "quant_pedido": 2,
            "num_boleto": 8020,
            "vencimento": "2020-07-31",
            "vlr_total": "120.00",
            "vlr_cartorio": "120.00",
            "vlr_frj": "0.00",
            "vlr_central": "0.00",
            "vlr_boleto": "0.00",
            "status": 1,
            "cd_boleto": 8020,
            "nome_credor": "3"
        },
        {
            "id": 284,
            "url": "https://www.irtdpjsc.com.br/cliente/base_boleto/8019/boleto_8019.pdf",
            "quant_pedido": 1,
            "num_boleto": 8019,
            "vencimento": "2020-07-31",
            "vlr_total": "90.00",
            "vlr_cartorio": "90.00",
            "vlr_frj": "0.00",
            "vlr_central": "0.00",
            "vlr_boleto": "0.00",
            "status": 1,
            "cd_boleto": 8019,
            "nome_credor": "2"
        },
        {
            "id": 283,
            "url": "https://www.irtdpjsc.com.br/cliente/base_boleto/7968/boleto_7968.pdf",
            "quant_pedido": 31,
            "num_boleto": 7968,
            "vencimento": "2020-07-23",
            "vlr_total": "15211.53",
            "vlr_cartorio": "15211.53",
            "vlr_frj": "0.00",
            "vlr_central": "0.00",
            "vlr_boleto": "0.00",
            "status": 2,
            "cd_boleto": 7968,
            "nome_credor": "1"
        },
        {
            "id": 282,
            "url": "https://www.irtdpjsc.com.br/cliente/base_boleto/7910/boleto_7910.pdf",
            "quant_pedido": 10,
            "num_boleto": 7910,
            "vencimento": "2020-07-21",
            "vlr_total": "5157.71",
            "vlr_cartorio": "5157.71",
            "vlr_frj": "0.00",
            "vlr_central": "0.00",
            "vlr_boleto": "0.00",
            "status": 2,
            "cd_boleto": 7910,
            "nome_credor": "1"
        },
        {
            "id": 281,
            "url": "https://www.irtdpjsc.com.br/cliente/base_boleto/7848/boleto_7848.pdf",
            "quant_pedido": 10,
            "num_boleto": 7848,
            "vencimento": "2020-07-17",
            "vlr_total": "4637.68",
            "vlr_cartorio": "4637.68",
            "vlr_frj": "0.00",
            "vlr_central": "0.00",
            "vlr_boleto": "0.00",
            "status": 2,
            "cd_boleto": 7848,
            "nome_credor": "1"
        },
        {
            "id": 280,
            "url": "https://www.irtdpjsc.com.br/cliente/base_boleto/7821/boleto_7821.pdf",
            "quant_pedido": 47,
            "num_boleto": 7821,
            "vencimento": "2020-07-16",
            "vlr_total": "20597.95",
            "vlr_cartorio": "20597.95",
            "vlr_frj": "0.00",
            "vlr_central": "0.00",
            "vlr_boleto": "0.00",
            "status": 2,
            "cd_boleto": 7821,
            "nome_credor": "1"
        },
        {
            "id": 279,
            "url": "https://www.irtdpjsc.com.br/cliente/base_boleto/7728/boleto_7728.pdf",
            "quant_pedido": 36,
            "num_boleto": 7728,
            "vencimento": "2020-07-10",
            "vlr_total": "14595.05",
            "vlr_cartorio": "14595.05",
            "vlr_frj": "0.00",
            "vlr_central": "0.00",
            "vlr_boleto": "0.00",
            "status": 2,
            "cd_boleto": 7728,
            "nome_credor": "1"
        },
        {
            "id": 278,
            "url": "https://www.irtdpjsc.com.br/cliente/base_boleto/7661/boleto_7661.pdf",
            "quant_pedido": 35,
            "num_boleto": 7661,
            "vencimento": "2020-07-07",
            "vlr_total": "15001.71",
            "vlr_cartorio": "15001.71",
            "vlr_frj": "0.00",
            "vlr_central": "0.00",
            "vlr_boleto": "0.00",
            "status": 2,
            "cd_boleto": 7661,
            "nome_credor": "1"
        },
        {
            "id": 277,
            "url": "https://www.irtdpjsc.com.br/cliente/base_boleto/7597/boleto_7597.pdf",
            "quant_pedido": 48,
            "num_boleto": 7597,
            "vencimento": "2020-07-02",
            "vlr_total": "21016.87",
            "vlr_cartorio": "21016.87",
            "vlr_frj": "0.00",
            "vlr_central": "0.00",
            "vlr_boleto": "0.00",
            "status": 2,
            "cd_boleto": 7597,
            "nome_credor": "1"
        },
        {
            "id": 276,
            "url": "https://www.irtdpjsc.com.br/cliente/base_boleto/7474/boleto_7474.pdf",
            "quant_pedido": 83,
            "num_boleto": 7474,
            "vencimento": "2020-06-24",
            "vlr_total": "35423.83",
            "vlr_cartorio": "35423.83",
            "vlr_frj": "0.00",
            "vlr_central": "0.00",
            "vlr_boleto": "0.00",
            "status": 2,
            "cd_boleto": 7474,
            "nome_credor": "1"
        },
        {
            "id": 273,
            "url": "https://www.irtdpjsc.com.br/cliente/base_boleto/7213/boleto_7213.pdf",
            "quant_pedido": 10,
            "num_boleto": 7213,
            "vencimento": "2020-06-05",
            "vlr_total": "5646.45",
            "vlr_cartorio": "5646.45",
            "vlr_frj": "0.00",
            "vlr_central": "0.00",
            "vlr_boleto": "0.00",
            "status": 2,
            "cd_boleto": 7213,
            "nome_credor": "1"
        },
        {
            "id": 272,
            "url": "https://www.irtdpjsc.com.br/cliente/base_boleto/7084/boleto_7084.pdf",
            "quant_pedido": 43,
            "num_boleto": 7084,
            "vencimento": "2020-05-28",
            "vlr_total": "29653.62",
            "vlr_cartorio": "29653.62",
            "vlr_frj": "0.00",
            "vlr_central": "0.00",
            "vlr_boleto": "0.00",
            "status": 2,
            "cd_boleto": 7084,
            "nome_credor": "1"
        },
        {
            "id": 269,
            "url": "https://www.irtdpjsc.com.br/cliente/base_boleto/5952/boleto_5952.pdf",
            "quant_pedido": 17,
            "num_boleto": 5952,
            "vencimento": "2020-03-17",
            "vlr_total": "7002.58",
            "vlr_cartorio": "7002.58",
            "vlr_frj": "0.00",
            "vlr_central": "0.00",
            "vlr_boleto": "0.00",
            "status": 2,
            "cd_boleto": 5952,
            "nome_credor": "1"
        },
        {
            "id": 268,
            "url": "https://www.irtdpjsc.com.br/cliente/base_boleto/5939/boleto_5939.pdf",
            "quant_pedido": 18,
            "num_boleto": 5939,
            "vencimento": "2020-03-16",
            "vlr_total": "6064.11",
            "vlr_cartorio": "6064.11",
            "vlr_frj": "0.00",
            "vlr_central": "0.00",
            "vlr_boleto": "0.00",
            "status": 2,
            "cd_boleto": 5939,
            "nome_credor": "1"
        },
        {
            "id": 267,
            "url": "https://www.irtdpjsc.com.br/cliente/base_boleto/5915/boleto_5915.pdf",
            "quant_pedido": 39,
            "num_boleto": 5915,
            "vencimento": "2020-03-12",
            "vlr_total": "14787.09",
            "vlr_cartorio": "14787.09",
            "vlr_frj": "0.00",
            "vlr_central": "0.00",
            "vlr_boleto": "0.00",
            "status": 2,
            "cd_boleto": 5915,
            "nome_credor": "1"
        },
        {
            "id": 266,
            "url": "https://www.irtdpjsc.com.br/cliente/base_boleto/5893/boleto_5893.pdf",
            "quant_pedido": 17,
            "num_boleto": 5893,
            "vencimento": "2020-03-10",
            "vlr_total": "5294.98",
            "vlr_cartorio": "5294.98",
            "vlr_frj": "0.00",
            "vlr_central": "0.00",
            "vlr_boleto": "0.00",
            "status": 2,
            "cd_boleto": 5893,
            "nome_credor": "1"
        },
        {
            "id": 265,
            "url": "https://www.irtdpjsc.com.br/cliente/base_boleto/5887/boleto_5887.pdf",
            "quant_pedido": 144,
            "num_boleto": 5887,
            "vencimento": "2020-03-09",
            "vlr_total": "48570.80",
            "vlr_cartorio": "48570.80",
            "vlr_frj": "0.00",
            "vlr_central": "0.00",
            "vlr_boleto": "0.00",
            "status": 2,
            "cd_boleto": 5887,
            "nome_credor": "1"
        },
        {
            "id": 264,
            "url": "https://www.irtdpjsc.com.br/cliente/base_boleto/5852/boleto_5852.pdf",
            "quant_pedido": 121,
            "num_boleto": 5852,
            "vencimento": "2020-03-05",
            "vlr_total": "39632.66",
            "vlr_cartorio": "39632.66",
            "vlr_frj": "0.00",
            "vlr_central": "0.00",
            "vlr_boleto": "0.00",
            "status": 2,
            "cd_boleto": 5852,
            "nome_credor": "1"
        },
        {
            "id": 263,
            "url": "https://www.irtdpjsc.com.br/cliente/base_boleto/5833/boleto_5833.pdf",
            "quant_pedido": 20,
            "num_boleto": 5833,
            "vencimento": "2020-03-03",
            "vlr_total": "7102.23",
            "vlr_cartorio": "7102.23",
            "vlr_frj": "0.00",
            "vlr_central": "0.00",
            "vlr_boleto": "0.00",
            "status": 2,
            "cd_boleto": 5833,
            "nome_credor": "1"
        },
        {
            "id": 262,
            "url": "https://www.irtdpjsc.com.br/cliente/base_boleto/5827/boleto_5827.pdf",
            "quant_pedido": 64,
            "num_boleto": 5827,
            "vencimento": "2020-03-02",
            "vlr_total": "21857.56",
            "vlr_cartorio": "21857.56",
            "vlr_frj": "0.00",
            "vlr_central": "0.00",
            "vlr_boleto": "0.00",
            "status": 2,
            "cd_boleto": 5827,
            "nome_credor": "1"
        },
        {
            "id": 261,
            "url": "https://www.irtdpjsc.com.br/cliente/base_boleto/5786/boleto_5786.pdf",
            "quant_pedido": 17,
            "num_boleto": 5786,
            "vencimento": "2020-02-27",
            "vlr_total": "5362.18",
            "vlr_cartorio": "5362.18",
            "vlr_frj": "0.00",
            "vlr_central": "0.00",
            "vlr_boleto": "0.00",
            "status": 2,
            "cd_boleto": 5786,
            "nome_credor": "1"
        },
        {
            "id": 260,
            "url": "https://www.irtdpjsc.com.br/cliente/base_boleto/5767/boleto_5767.pdf",
            "quant_pedido": 46,
            "num_boleto": 5767,
            "vencimento": "2020-02-24",
            "vlr_total": "14498.68",
            "vlr_cartorio": "14498.68",
            "vlr_frj": "0.00",
            "vlr_central": "0.00",
            "vlr_boleto": "0.00",
            "status": 2,
            "cd_boleto": 5767,
            "nome_credor": "1"
        },
        {
            "id": 259,
            "url": "https://www.irtdpjsc.com.br/cliente/base_boleto/5732/boleto_5732.pdf",
            "quant_pedido": 31,
            "num_boleto": 5732,
            "vencimento": "2020-02-20",
            "vlr_total": "10886.11",
            "vlr_cartorio": "10886.11",
            "vlr_frj": "0.00",
            "vlr_central": "0.00",
            "vlr_boleto": "0.00",
            "status": 2,
            "cd_boleto": 5732,
            "nome_credor": "1"
        },
        {
            "id": 258,
            "url": "https://www.irtdpjsc.com.br/cliente/base_boleto/5695/boleto_5695.pdf",
            "quant_pedido": 41,
            "num_boleto": 5695,
            "vencimento": "2020-02-18",
            "vlr_total": "15703.25",
            "vlr_cartorio": "15703.25",
            "vlr_frj": "0.00",
            "vlr_central": "0.00",
            "vlr_boleto": "0.00",
            "status": 2,
            "cd_boleto": 5695,
            "nome_credor": "1"
        },
        {
            "id": 257,
            "url": "https://www.irtdpjsc.com.br/cliente/base_boleto/5675/boleto_5675.pdf",
            "quant_pedido": 96,
            "num_boleto": 5675,
            "vencimento": "2020-02-17",
            "vlr_total": "32238.72",
            "vlr_cartorio": "32238.72",
            "vlr_frj": "0.00",
            "vlr_central": "0.00",
            "vlr_boleto": "0.00",
            "status": 2,
            "cd_boleto": 5675,
            "nome_credor": "1"
        },
        {
            "id": 256,
            "url": "https://www.irtdpjsc.com.br/cliente/base_boleto/5657/boleto_5657.pdf",
            "quant_pedido": 109,
            "num_boleto": 5657,
            "vencimento": "2020-02-13",
            "vlr_total": "40711.28",
            "vlr_cartorio": "40711.28",
            "vlr_frj": "0.00",
            "vlr_central": "0.00",
            "vlr_boleto": "0.00",
            "status": 2,
            "cd_boleto": 5657,
            "nome_credor": "1"
        },
        {
            "id": 255,
            "url": "https://www.irtdpjsc.com.br/cliente/base_boleto/5631/boleto_5631.pdf",
            "quant_pedido": 70,
            "num_boleto": 5631,
            "vencimento": "2020-02-11",
            "vlr_total": "25609.12",
            "vlr_cartorio": "25609.12",
            "vlr_frj": "0.00",
            "vlr_central": "0.00",
            "vlr_boleto": "0.00",
            "status": 2,
            "cd_boleto": 5631,
            "nome_credor": "1"
        },
        {
            "id": 254,
            "url": "https://www.irtdpjsc.com.br/cliente/base_boleto/5617/boleto_5617.pdf",
            "quant_pedido": 66,
            "num_boleto": 5617,
            "vencimento": "2020-02-10",
            "vlr_total": "27119.20",
            "vlr_cartorio": "27119.20",
            "vlr_frj": "0.00",
            "vlr_central": "0.00",
            "vlr_boleto": "0.00",
            "status": 2,
            "cd_boleto": 5617,
            "nome_credor": "1"
        },
        {
            "id": 253,
            "url": "https://www.irtdpjsc.com.br/cliente/base_boleto/5578/boleto_5578.pdf",
            "quant_pedido": 90,
            "num_boleto": 5578,
            "vencimento": "2020-02-06",
            "vlr_total": "30783.15",
            "vlr_cartorio": "30783.15",
            "vlr_frj": "0.00",
            "vlr_central": "0.00",
            "vlr_boleto": "0.00",
            "status": 2,
            "cd_boleto": 5578,
            "nome_credor": "1"
        },
        {
            "id": 252,
            "url": "https://www.irtdpjsc.com.br/cliente/base_boleto/5542/boleto_5542.pdf",
            "quant_pedido": 37,
            "num_boleto": 5542,
            "vencimento": "2020-02-04",
            "vlr_total": "12751.26",
            "vlr_cartorio": "12751.26",
            "vlr_frj": "0.00",
            "vlr_central": "0.00",
            "vlr_boleto": "0.00",
            "status": 2,
            "cd_boleto": 5542,
            "nome_credor": "1"
        },
        {
            "id": 251,
            "url": "https://www.irtdpjsc.com.br/cliente/base_boleto/5527/boleto_5527.pdf",
            "quant_pedido": 107,
            "num_boleto": 5527,
            "vencimento": "2020-02-03",
            "vlr_total": "39918.66",
            "vlr_cartorio": "39918.66",
            "vlr_frj": "0.00",
            "vlr_central": "0.00",
            "vlr_boleto": "0.00",
            "status": 2,
            "cd_boleto": 5527,
            "nome_credor": "1"
        },
        {
            "id": 250,
            "url": "https://www.irtdpjsc.com.br/cliente/base_boleto/5511/boleto_5511.pdf",
            "quant_pedido": 147,
            "num_boleto": 5511,
            "vencimento": "2020-01-30",
            "vlr_total": "51907.41",
            "vlr_cartorio": "51907.41",
            "vlr_frj": "0.00",
            "vlr_central": "0.00",
            "vlr_boleto": "0.00",
            "status": 2,
            "cd_boleto": 5511,
            "nome_credor": "1"
        },
        {
            "id": 249,
            "url": "https://www.irtdpjsc.com.br/cliente/base_boleto/5493/boleto_5493.pdf",
            "quant_pedido": 181,
            "num_boleto": 5493,
            "vencimento": "2020-01-28",
            "vlr_total": "60135.99",
            "vlr_cartorio": "60135.99",
            "vlr_frj": "0.00",
            "vlr_central": "0.00",
            "vlr_boleto": "0.00",
            "status": 2,
            "cd_boleto": 5493,
            "nome_credor": "1"
        },
        {
            "id": 248,
            "url": "https://www.irtdpjsc.com.br/cliente/base_boleto/5452/boleto_5452.pdf",
            "quant_pedido": 208,
            "num_boleto": 5452,
            "vencimento": "2020-01-23",
            "vlr_total": "72177.66",
            "vlr_cartorio": "72177.66",
            "vlr_frj": "0.00",
            "vlr_central": "0.00",
            "vlr_boleto": "0.00",
            "status": 2,
            "cd_boleto": 5452,
            "nome_credor": "1"
        },
        {
            "id": 247,
            "url": "https://www.irtdpjsc.com.br/cliente/base_boleto/5358/boleto_5358.pdf",
            "quant_pedido": 70,
            "num_boleto": 5358,
            "vencimento": "2020-01-16",
            "vlr_total": "24003.55",
            "vlr_cartorio": "24003.55",
            "vlr_frj": "0.00",
            "vlr_central": "0.00",
            "vlr_boleto": "0.00",
            "status": 2,
            "cd_boleto": 5358,
            "nome_credor": "1"
        },
        {
            "id": 246,
            "url": "https://www.irtdpjsc.com.br/cliente/base_boleto/5337/boleto_5337.pdf",
            "quant_pedido": 14,
            "num_boleto": 5337,
            "vencimento": "2020-01-14",
            "vlr_total": "4791.76",
            "vlr_cartorio": "4791.76",
            "vlr_frj": "0.00",
            "vlr_central": "0.00",
            "vlr_boleto": "0.00",
            "status": 2,
            "cd_boleto": 5337,
            "nome_credor": "1"
        },
        {
            "id": 245,
            "url": "https://www.irtdpjsc.com.br/cliente/base_boleto/5322/boleto_5322.pdf",
            "quant_pedido": 109,
            "num_boleto": 5322,
            "vencimento": "2020-01-13",
            "vlr_total": "42455.93",
            "vlr_cartorio": "42455.93",
            "vlr_frj": "0.00",
            "vlr_central": "0.00",
            "vlr_boleto": "0.00",
            "status": 2,
            "cd_boleto": 5322,
            "nome_credor": "1"
        },
        {
            "id": 244,
            "url": "https://www.irtdpjsc.com.br/cliente/base_boleto/5303/boleto_5303.pdf",
            "quant_pedido": 209,
            "num_boleto": 5303,
            "vencimento": "2020-01-09",
            "vlr_total": "86101.89",
            "vlr_cartorio": "86101.89",
            "vlr_frj": "0.00",
            "vlr_central": "0.00",
            "vlr_boleto": "0.00",
            "status": 2,
            "cd_boleto": 5303,
            "nome_credor": "1"
        },
        {
            "id": 243,
            "url": "https://www.irtdpjsc.com.br/cliente/base_boleto/5268/boleto_5268.pdf",
            "quant_pedido": 89,
            "num_boleto": 5268,
            "vencimento": "2020-01-07",
            "vlr_total": "37325.79",
            "vlr_cartorio": "37325.79",
            "vlr_frj": "0.00",
            "vlr_central": "0.00",
            "vlr_boleto": "0.00",
            "status": 2,
            "cd_boleto": 5268,
            "nome_credor": "1"
        },
        {
            "id": 242,
            "url": "https://www.irtdpjsc.com.br/cliente/base_boleto/5231/boleto_5231.pdf",
            "quant_pedido": 270,
            "num_boleto": 5231,
            "vencimento": "2020-01-06",
            "vlr_total": "91621.18",
            "vlr_cartorio": "91621.18",
            "vlr_frj": "0.00",
            "vlr_central": "0.00",
            "vlr_boleto": "0.00",
            "status": 2,
            "cd_boleto": 5231,
            "nome_credor": "1"
        },
        {
            "id": 241,
            "url": "https://www.irtdpjsc.com.br/cliente/base_boleto/5126/boleto_5126.pdf",
            "quant_pedido": 44,
            "num_boleto": 5126,
            "vencimento": "2019-12-19",
            "vlr_total": "15497.20",
            "vlr_cartorio": "15497.20",
            "vlr_frj": "0.00",
            "vlr_central": "0.00",
            "vlr_boleto": "0.00",
            "status": 2,
            "cd_boleto": 5126,
            "nome_credor": "1"
        },
        {
            "id": 240,
            "url": "https://www.irtdpjsc.com.br/cliente/base_boleto/5083/boleto_5083.pdf",
            "quant_pedido": 41,
            "num_boleto": 5083,
            "vencimento": "2019-12-17",
            "vlr_total": "18343.83",
            "vlr_cartorio": "18343.83",
            "vlr_frj": "0.00",
            "vlr_central": "0.00",
            "vlr_boleto": "0.00",
            "status": 2,
            "cd_boleto": 5083,
            "nome_credor": "1"
        },
        {
            "id": 239,
            "url": "https://www.irtdpjsc.com.br/cliente/base_boleto/5073/boleto_5073.pdf",
            "quant_pedido": 66,
            "num_boleto": 5073,
            "vencimento": "2019-12-16",
            "vlr_total": "21375.32",
            "vlr_cartorio": "21375.32",
            "vlr_frj": "0.00",
            "vlr_central": "0.00",
            "vlr_boleto": "0.00",
            "status": 2,
            "cd_boleto": 5073,
            "nome_credor": "1"
        },
        {
            "id": 238,
            "url": "https://www.irtdpjsc.com.br/cliente/base_boleto/5018/boleto_5018.pdf",
            "quant_pedido": 92,
            "num_boleto": 5018,
            "vencimento": "2019-12-12",
            "vlr_total": "28649.05",
            "vlr_cartorio": "28649.05",
            "vlr_frj": "0.00",
            "vlr_central": "0.00",
            "vlr_boleto": "0.00",
            "status": 2,
            "cd_boleto": 5018,
            "nome_credor": "1"
        }
    ]
}
